<svg xmlns="http://www.w3.org/2000/svg" width="880.99" height="22.53" viewBox="0 0 880.99 22.53">
  <title>Asset 2</title>
  <g id="Layer_2" data-name="Layer 2">
    <g id="Timeline">
      <text transform="translate(0 17.11)" style="font-size: 20px;font-family: Roboto-Regular, Roboto">1840<tspan x="44.92" y="0" style="letter-spacing: -0.0546875em">’</tspan><tspan x="47.82" y="0">s</tspan></text>
      <text transform="translate(270 17.11)" style="font-size: 20px;font-family: Roboto-Regular, Roboto">1930<tspan x="44.92" y="0" style="letter-spacing: -0.0546875em">’</tspan><tspan x="47.82" y="0">s</tspan></text>
      <text transform="translate(555 17.11)" style="font-size: 20px;font-family: Roboto-Regular, Roboto">1990<tspan x="44.92" y="0" style="letter-spacing: -0.0546875em">’</tspan><tspan x="47.82" y="0">s</tspan></text>
      <text transform="translate(827.14 17.11)" style="font-size: 20px;font-family: Roboto-Regular, Roboto"><tspan style="letter-spacing: -0.04833984375em">T</tspan><tspan x="10.97" y="0">od</tspan><tspan x="33.65" y="0" style="letter-spacing: -0.00732421875em">a</tspan><tspan x="44.38" y="0">y</tspan></text>
    </g>
  </g>
</svg>
